p3150085/simulation/qsim/erg1.msim.vcd
$comment
	File created using the following command:
		vcd file erg1.msim.vcd -direction
$end
$date
	Sat Apr 07 12:50:03 2018
$end
$version
	ModelSim Version 10.1d
$end
$timescale
	1ps
$end
$scope module erg1_vlg_vec_tst $end
$var reg 1 ! x1 $end
$var reg 1 " x2 $end
$var reg 1 # x3 $end
$var reg 1 $ X4 $end
$var reg 1 % X5 $end
$var wire 1 & f $end
$var wire 1 ' sampler $end
$scope module i1 $end
$var wire 1 ( gnd $end
$var wire 1 ) vcc $end
$var wire 1 * unknown $end
$var tri1 1 + devclrn $end
$var tri1 1 , devpor $end
$var tri1 1 - devoe $end
$var wire 1 . X4~combout $end
$var wire 1 / x3~combout $end
$var wire 1 0 X5~combout $end
$var wire 1 1 x1~combout $end
$var wire 1 2 stage12|F~0_combout $end
$var wire 1 3 x2~combout $end
$var wire 1 4 stage12|F~1_combout $end
$upscope $end
$upscope $end
$enddefinitions $end
#0
$dumpvars
0!
0"
0#
0$
0%
1&
x'
0(
1)
x*
1+
1,
1-
0.
0/
00
01
12
03
14
$end
#10000
1$
1.
0'
#20000
1#
0$
1/
0.
1'
#30000
1$
1.
0'
04
0&
#40000
1"
0#
0$
13
0/
0.
1'
14
1&
#50000
1$
1.
0'
#60000
1#
0$
1/
0.
1'
#70000
1$
1.
0'
#80000
1!
0"
0#
0$
11
03
0/
0.
1'
#90000
1$
1.
0'
#100000
1#
0$
1/
0.
1'
#110000
1$
1.
0'
04
02
0&
#120000
1"
0#
0$
13
0/
0.
1'
12
14
1&
#130000
1$
1.
0'
#140000
1#
0$
1/
0.
1'
#150000
1$
1.
0'
02
04
0&
